Axi_master_slave.vcd
$date
	Mon May 24 02:38:58 2021
$end

$version
	Synopsys VCS version Q-2020.03-SP1-1
$end

$timescale
	1ns
$end

$comment Csum: 1 28a18ceed6de8f1f $end


$scope module $unit $end
$upscope $end


$scope module Axi_pkg $end
$upscope $end


$scope module top $end
$var reg 1 ! ACLK $end
$var reg 1 " RESETn $end

$scope begin unnamed$$_vcs_2 $end
$upscope $end


$scope begin unnamed$$_vcs_0 $end
$upscope $end


$scope begin unnamed$$_vcs_1 $end
$upscope $end


$scope begin unnamed$$_vcs_3 $end
$upscope $end


$scope module mas_slav_if $end
$var reg 1 # ACLK $end
$var reg 1 $ RESETn $end
$var reg 4 % AWID [3:0] $end
$var reg 32 & AWADDR [31:0] $end
$var reg 4 ' AWLEN [3:0] $end
$var reg 4 ( AWSIZE [3:0] $end
$var reg 2 ) AWBURST [1:0] $end
$var reg 1 * AWVALID $end
$var reg 1 + AWREADY $end
$var reg 32 , WDATA [31:0] $end
$var reg 4 - WSTRB [3:0] $end
$var reg 1 . WLAST $end
$var reg 1 / WVALID $end
$var reg 1 0 WREADY $end
$var reg 4 1 BID [3:0] $end
$var reg 2 2 BRESP [1:0] $end
$var reg 1 3 BVALID $end
$var reg 1 4 BREADY $end
$var reg 4 5 ARID [3:0] $end
$var reg 32 6 ARADDR [31:0] $end
$var reg 4 7 ARLEN [3:0] $end
$var reg 4 8 ARSIZE [3:0] $end
$var reg 2 9 ARBURST [1:0] $end
$var reg 1 : ARVALID $end
$var reg 1 ; ARREADY $end
$var reg 4 < RID [3:0] $end
$var reg 32 = RDATA [31:0] $end
$var reg 2 > RRESP [1:0] $end
$var reg 1 ? RLAST $end
$var reg 1 @ RVALID $end
$var reg 1 A RREADY $end
$upscope $end

$upscope $end


$scope module uvm_pkg $end
$var reg 32 B UVM_UNBOUNDED_CONNECTIONS [31:0] $end
$var reg 1 C uvm_start_uvm_declarations $end
$var time 64 D setting_offset $end
$var reg 32 E setting_verbosity [31:0] $end
$var reg 1 F is_verdi_set_verbosity_called $end
$var reg 32 G uvm_global_random_seed [31:0] $end
$upscope $end

$enddefinitions $end

#0
$dumpvars
0F
1C
bxxxxxxxxxxxxxxxxxxxxxxxxxxxxxxxxxxxxxxxxxxxxxxxxxxxxxxxxxxxxxxxx D
b11111111111111111111111111111111 B
b00000000000000000000000000000000 E
b01000010000001111100110001000111 G
0!
1"
bxx >
bxxxxxxxxxxxxxxxxxxxxxxxxxxxxxxxx =
bxxxx <
bxx 9
bxxxx 8
bxxxx 7
bxxxxxxxxxxxxxxxxxxxxxxxxxxxxxxxx 6
bxxxx 5
bxx 2
bxxxx 1
bxxxx -
bxxxxxxxxxxxxxxxxxxxxxxxxxxxxxxxx ,
bxx )
bxxxx (
bxxxx '
bxxxxxxxxxxxxxxxxxxxxxxxxxxxxxxxx &
bxxxx %
x;
x:
x+
x*
x4
x3
x?
xA
x@
x.
x0
x/
0#
1$
$end
#5
1!
1#
#6
1+
10
1;
1*
b1110 %
b00001001010101011110011001001111 &
b0011 '
b0010 (
b10 )
1/
b11010110110101010111001101111110 ,
b1111 -
0.
14
1:
b1110 5
b10011110111000100101100010111101 6
b0011 7
b0010 8
b00 9
#10
0!
0#
#15
1!
1#
#16
13
b1110 1
b00 2
1@
b1110 <
b00000000000000000000000000000000 =
b00 >
0?
1A
0*
0:
0+
00
0;
#20
0!
0#
#25
1!
1#
#26
b10011110001110100101010100111011 ,
10
1+
0A
#30
0!
0#
#35
1!
1#
#36
b00010010000101010011010100100100 =
00
1A
#40
0!
0#
#45
1!
1#
#46
b01111110100010100100101111011010 ,
10
0A
#50
0!
0#
#55
1!
1#
#56
b11000000100010010101111010000001 =
00
1A
#60
0!
0#
#65
1!
1#
#66
1.
b11011101111000000000000010101110 ,
10
0A
#70
0!
0#
#75
1!
1#
#76
1?
b10000100100001001101011000001001 =
00
1A
#80
0!
0#
#85
1!
1#
#86
0.
0/
10
0A
03
#90
0!
0#
#95
1!
1#
#96
0?
0@
00
1A
1/
b10001001110101110111000000001110 ,
1*
b1111 %
b10110100111000001011100000001000 &
b0110 '
#100
0!
0#
#105
1!
1#
#106
10
0A
0*
13
b1111 1
1;
0+
#110
0!
0#
#115
1!
1#
#116
00
1@
b10110001111100000101011001100011 =
1:
b1000 5
b10011111000011000110101100001100 6
b0110 7
b01 9
1+
b00011111001110010001101000001011 ,
#120
0!
0#
#125
1!
1#
#126
10
1A
0:
0;
#130
0!
0#
#135
1!
1#
#136
00
0A
b10110010001111001001010010010011 ,
b1000 <
b00000110101110010111101100001101 =
#140
0!
0#
#145
1!
1#
#146
10
1A
#150
0!
0#
#155
1!
1#
#156
00
0A
b00111101110111110001101100110110 ,
b01000110110111111001100110001101 =
#160
0!
0#
#165
1!
1#
#166
10
1A
#170
0!
0#
#175
1!
1#
#176
00
0A
b10111110110001010110011010111001 ,
b10110010110000101000010001100101 =
#180
0!
0#
#185
1!
1#
#186
10
1A
#190
0!
0#
#195
1!
1#
#196
00
0A
b01011100000011011110001001000101 ,
b10001001001101110101001000010010 =
#200
0!
0#
#205
1!
1#
#206
10
1A
#210
0!
0#
#215
1!
1#
#216
00
0A
1.
b11010100100000010111010111000100 ,
b00000000111100111110001100000001 =
#220
0!
0#
#225
1!
1#
#226
10
1A
#230
0!
0#
#235
1!
1#
#236
00
0A
03
0.
0/
1?
b00000110110101111100110100001101 =
#240
0!
0#
#245
1!
1#
#246
10
1A
1/
b00100001111100000111101101111000 ,
1*
b0001 %
b01100111101011101100101111110001 &
b1100 '
b00 )
#250
0!
0#
#255
1!
1#
#256
0A
13
b0001 1
0*
0+
00
0?
0@
#260
0!
0#
#265
1!
1#
#266
1A
b00101010101111100111000001110111 ,
10
1;
#270
0!
0#
#275
1!
1#
#276
00
1@
b00111011001000111111000101110110 =
#280
0!
0#
#285
1!
1#
#286
b10101011101111010100100010000011 ,
10
0A
#290
0!
0#
#295
1!
1#
#296
00
b00011110100011011100110100111101 =
1:
b1110 5
b00100100010010001011001000001000 6
b1100 7
b00 9
#300
0!
0#
#305
1!
1#
#306
b10000011000001001111100010011001 ,
10
1A
0:
0;
#310
0!
0#
#315
1!
1#
#316
00
0A
b1110 <
b01110110110101000101011111101101 =
#320
0!
0#
#325
1!
1#
#326
b01110100100010100001000111101111 ,
10
1A
#330
0!
0#
#335
1!
1#
#336
00
0A
b01000110001011011111011110001100 =
#340
0!
0#
#345
1!
1#
#346
b01000101100011010000101011010110 ,
10
1A
#350
0!
0#
#355
1!
1#
#356
00
0A
b01111100111111011110100111111001 =
#360
0!
0#
#365
1!
1#
#366
b11110101001011001001000101110110 ,
10
1A
#370
0!
0#
#375
1!
1#
#376
00
0A
b11100011001101110010010011000110 =
#380
0!
0#
#385
1!
1#
#386
b11101100100010010101011010010100 ,
10
1A
#390
0!
0#
#395
1!
1#
#396
00
0A
b11100010111101111000010011000101 =
#400
0!
0#
#405
1!
1#
#406
b10011111011110001010000001100001 ,
10
1A
#410
0!
0#
#415
1!
1#
#416
00
0A
b11010101000100111101001010101010 =
#420
0!
0#
#425
1!
1#
#426
b01001001000000010011011101100111 ,
10
1A
#430
0!
0#
#435
1!
1#
#436
00
0A
b01110010101011111111011111100101 =
#440
0!
0#
#445
1!
1#
#446
b00111011111010100011110000100010 ,
10
1A
#450
0!
0#
#455
1!
1#
#456
00
0A
b10111011110100100111001001110111 =
#460
0!
0#
#465
1!
1#
#466
b10011111011111010010100001001001 ,
10
1A
#470
0!
0#
#475
1!
1#
#476
00
0A
b10001001001100101101011000010010 =
#480
0!
0#
#485
1!
1#
#486
1.
b11111110010101110100000000111110 ,
10
1A
#490
0!
0#
#495
1!
1#
#496
00
0A
b01000111111011001101101110001111 =
#500
0!
0#
#505
1!
1#
#506
0.
0/
10
1A
03
#510
0!
0#
#515
1!
1#
#516
00
0A
1?
b01111001001100000110100111110010 =
#520
0!
0#
#525
1!
1#
#526
10
1A
#530
0!
0#
#535
1!
1#
#536
0A
0?
0@
#540
0!
0#
#545
1!
1#
#546
1A
